<?xml version="1.0" encoding="UTF-8"?>
<svg width="110px" height="101px" viewBox="0 0 110 101" version="1.1" xmlns="http://www.w3.org/2000/svg" xmlns:xlink="http://www.w3.org/1999/xlink">
    <title>smallsvg@2x</title>
    <g id="smallsvg" stroke="none" stroke-width="1" fill="none" fill-rule="evenodd">
        <path d="M62.0587174,79.2343759 L70.9715615,85.4784969 C66.6355237,87.419102 62.0470181,88.488322 57.4466474,88.7200746 L56.7893969,88.7474887 L62.0587174,79.2343759 Z M49.7246485,79.2100249 L55.6447344,88.3323949 C50.8253146,88.5097004 45.9423499,87.7718567 41.2690834,86.0606641 L49.7246485,79.2100249 Z M59.3116195,85.473631 C59.1360977,86.0814625 58.5688986,86.9051829 57.6100222,87.9447923 C59.4463739,88.5621482 61.0528705,88.3819599 62.429512,87.4042273 C60.8842513,86.8249216 59.8449538,86.1813895 59.3116195,85.473631 Z M52.900283,85.2424536 C52.4176186,85.9856915 51.4257433,86.7001538 49.9246571,87.3858402 C51.3661484,88.2651614 52.981301,88.3328473 54.7701148,87.5888978 C53.7410547,86.6187087 53.1177775,85.8365606 52.900283,85.2424536 Z M55.4563148,57.3239748 C56.1671904,57.3239748 56.8519785,57.2121868 57.4940867,57.0052169 C59.4047123,58.2599426 60.69795,59.9395229 61.3747306,62.0429148 C62.0117351,64.8987539 62.0456882,67.048727 61.4765897,68.4928341 L61.3952475,68.6853826 L57.6931856,72.9958689 C57.502853,73.2174823 57.368862,73.4807414 57.3013362,73.763243 L57.2688775,73.9348739 L61.4720736,70.0541889 C61.3754059,72.6858645 61.979158,75.1410861 60.811741,78.6364126 C60.0658913,80.8695378 58.6013837,83.7897978 56.4182181,87.3971926 L56.1293818,87.8716191 L56.1047284,87.2192403 L55.9208171,86.9594959 C53.4913305,83.5131786 51.8266833,80.7021911 50.9268754,78.5265334 C49.5184806,75.1211563 49.9494944,72.6297999 49.6694858,70.0112781 L54.133146,73.5893098 C54.0604058,73.2463856 53.8907634,72.9315463 53.6443698,72.6821905 L49.6506416,68.6404471 C48.8993142,67.2468003 48.7516848,65.0375609 49.2077535,62.0127288 C49.7344202,59.8743155 50.9013684,58.1131827 52.7085982,56.7293303 C53.5460431,57.1115572 54.4763934,57.3239748 55.4563148,57.3239748 Z M48.5125603,86.2423531 L46.1237278,86.2711144 L47.1846044,86.9600557 L47.2779813,87.0253373 L47.3834629,87.0828124 C47.903955,87.3328145 48.8198687,87.3278057 50.131204,87.0677859 C49.3804039,86.5721746 48.8629169,86.2996082 48.578743,86.2500867 L48.5125603,86.2423531 Z M66.1434231,86.0270775 L63.7584034,86.1650228 L63.6929214,86.1773542 C63.4128942,86.246578 62.915681,86.5545785 62.2012819,87.1013558 C63.4328268,87.2572743 64.3089137,87.21763 64.8295426,86.982423 L64.9433779,86.9246729 L65.0445933,86.8599797 L65.1331889,86.7883435 L66.1434231,86.0270775 Z M45.4667068,84.4957805 L42.7956553,85.4733994 L45.6020498,87.0744281 L45.8963766,85.2276758 L45.4667068,84.4957805 Z M66.6750026,84.2102367 L66.2974339,84.9703214 L66.7198667,86.7920439 L69.4077428,84.9991511 L66.6750026,84.2102367 Z M61.2020012,82.6224273 C59.0308438,84.575556 59.188585,85.8358317 61.6752249,86.4032546 C63.0606596,85.2544466 63.7012276,84.4229954 63.5969289,83.9089008 C63.2497791,83.2916819 62.4514699,82.8628573 61.2020012,82.6224273 Z M50.8156163,82.5300616 C49.5859628,82.8570645 48.8195115,83.3405317 48.5162623,83.9804631 C48.4480791,84.5005808 49.1450858,85.2853229 50.6072825,86.3346894 C53.0482836,85.5951895 53.1177282,84.3269803 50.8156163,82.5300616 Z M45.4697009,83.1341642 C45.4874513,83.5219558 45.8096807,84.1538876 46.4363892,85.0299596 C46.5439524,85.2205758 46.9778852,85.5023751 47.7381876,85.8753574 C47.6076439,85.12638 47.2599585,84.0250524 46.6951316,82.5713747 C46.0540081,82.5028441 45.6455312,82.6904406 45.4697009,83.1341642 Z M47.3778152,63.0886756 L48.7149921,78.4487132 L40.9577384,85.864868 L39.3186988,85.2533279 C38.4752183,82.1393329 38.4167569,78.6294063 39.1433146,74.723548 C41.5778147,69.8134727 44.3226482,65.9351819 47.3778152,63.0886756 Z M65.3153305,82.3762092 C64.8532829,83.8657462 64.5832692,84.9886443 64.5052894,85.7449036 C65.2377219,85.3197938 65.6509403,85.0084114 65.7449448,84.8107563 C66.3090149,83.8931013 66.5863781,83.2402313 66.5770343,82.8521461 C66.3706797,82.4217687 65.9501118,82.2631231 65.3153305,82.3762092 Z M56.5090709,80.7072018 C56.5752587,82.9450319 56.6490503,84.5481045 56.7304457,85.5164197 C57.0781252,84.931807 57.270312,84.5410759 57.3070063,84.3442265 C57.5778607,83.5277903 57.6729715,82.8522711 57.5923384,82.3176687 C57.3486034,81.5751224 56.9875142,81.0383001 56.5090709,80.7072018 Z M63.2752654,62.9885907 C66.5215524,65.6150453 69.5302355,69.2924189 72.3013148,74.0207114 C73.2510737,77.6832463 73.4654804,81.0372035 72.9445351,84.0825828 L72.8608782,84.5370754 L71.2684902,85.2614595 L63.0128079,78.4044887 L63.2752654,62.9885907 Z M55.3635155,80.2921393 C54.9093339,80.6558055 54.5865711,81.2165085 54.3952272,81.9742481 C54.3520826,82.5131728 54.4940834,83.180412 54.8212298,83.9759655 C54.8715662,84.1697757 55.0905409,84.5461487 55.478154,85.1050844 C55.4918049,84.1334502 55.453592,82.5291351 55.3635155,80.2921393 Z M40.1832993,81.2861608 C39.7061839,81.4795768 39.3904418,81.8642874 39.2360731,82.4402927 C39.2650234,83.6948588 39.6385644,84.5553219 40.3566962,85.0216822 L41.8492705,83.7952645 L40.1832993,81.2861608 Z M38.7613696,73.5697809 C38.2142163,74.6066587 37.951706,76.1721632 37.9738385,78.2662943 C37.9871077,79.5217936 38.5696033,83.3552662 38.5787448,84.9992284 C38.3668358,84.9135675 38.1692693,84.8314303 37.983429,84.7517496 C36.6558082,84.0967022 35.3499732,83.3553041 34.0753386,82.5275467 C31.8525518,81.0840521 29.8310909,79.4470593 28.018687,77.6530154 L27.9076416,77.6919068 C32.1676678,76.1415975 33.0302224,76.318981 35.2049212,75.5624093 C35.4450539,75.4788678 36.6305367,74.8146584 38.7613696,73.5697809 Z M71.7216482,80.6398836 L70.2347615,83.2590876 L71.8092505,84.378401 C72.4931014,83.8630825 72.8057096,82.9786585 72.7470752,81.725129 C72.5529024,81.161295 72.2110934,80.7995466 71.7216482,80.6398836 Z M72.6018468,72.8431117 C74.8143274,73.9363172 76.0432553,74.5162136 76.2886306,74.5828008 C78.4454496,75.168094 79.3078118,74.9619315 83.3411535,76.0916386 L83.7166806,76.1980785 L83.6031927,76.1670279 C81.9203499,78.0831286 80.0180041,79.8571436 77.9013249,81.4521758 C76.6875368,82.3668308 75.4366,83.1975133 74.1579071,83.9435752 C73.9780777,84.0360254 73.7867221,84.131744 73.5813046,84.2319783 C73.4757469,82.591383 73.789414,78.7266158 73.7150717,77.4732492 C73.5910711,75.3826753 73.2199961,73.8392962 72.6018468,72.8431117 Z M37.582113,80.2762274 C36.9951977,80.35884 36.5625733,80.6817098 36.2842399,81.2448368 C36.202564,81.6934816 36.3459281,82.3501481 36.7143324,83.2148364 C36.7673473,83.4102831 37.1048506,83.6294603 37.7268423,83.872368 C37.7938577,83.0302866 37.7456146,81.831573 37.582113,80.2762274 Z M40.4962047,80.3572026 C40.5363447,80.8463643 40.8851366,81.4857929 41.5425803,82.2754881 L41.7133714,82.4760425 L42.4764623,83.454655 L43.4342006,82.7482149 L42.1933292,79.64787 C41.2880958,79.5237645 40.7223877,79.7602087 40.4962047,80.3572026 Z M34.1865978,78.5240186 C34.0026817,80.7494471 34.1496284,82.0546101 34.6274379,82.4395073 L34.6916372,82.4844924 L34.7595892,82.5190397 L35.8735096,83.2424281 L35.5710565,79.875961 C35.5142724,79.5197095 35.0527862,79.069062 34.1865978,78.5240186 Z M74.2460488,79.4509608 C74.1914409,81.013923 74.2269334,82.2130818 74.3525262,83.0484372 C74.9560584,82.7627333 75.2774505,82.5205469 75.3167026,82.3218781 C75.6238918,81.4335976 75.7211,80.7685302 75.6083271,80.3266757 C75.29139,79.784336 74.8372972,79.492431 74.2460488,79.4509608 Z M69.7769269,79.1135178 L69.6022333,79.1457963 L68.5806537,82.3251477 L69.5853378,82.9630584 L70.2783053,81.9335993 L70.4346904,81.7216196 C71.0354462,80.8879871 71.3387842,80.2257857 71.3447043,79.7350155 C71.0952465,79.1939043 70.572654,78.9867385 69.7769269,79.1135178 Z M49.9503313,81.3428841 L49.8735059,81.3537853 L47.4436476,82.112467 L48.2825925,82.6783604 L48.3392011,82.7240816 L48.4053677,82.7610344 C48.8310412,82.9564457 49.7728476,82.6783623 51.2307867,81.9267841 C50.6487558,81.5221774 50.2219374,81.3275441 49.9503313,81.3428841 Z M61.982365,81.3777825 C61.7103506,81.3814261 61.2981487,81.6053587 60.7457596,82.0495802 C62.1639385,82.6595065 63.0967761,82.8829191 63.5442724,82.7198179 L63.6224904,82.684707 L63.6859181,82.6432287 L63.7391994,82.59367 L64.536626,81.9706332 L62.0597638,81.3832981 L61.982365,81.3777825 Z M77.5110648,77.4661611 C76.7485496,78.023827 76.3244188,78.4772022 76.2386723,78.8262868 L76.2242853,78.9113853 L76.1574018,82.2907498 L77.2181477,81.4914204 L77.2835243,81.4522172 L77.3444293,81.4028634 C77.7942258,80.9855734 77.849771,79.6733393 77.5110648,77.4661611 Z M59.1347211,79.7178075 C58.6594448,79.9230943 58.02811,80.2866798 57.2407166,80.8085642 C57.7207212,81.6869434 58.1471821,82.1461457 58.5200992,82.186171 L58.5991904,82.1883319 L58.6429801,82.1670855 L58.6851183,82.1321915 C58.905451,81.9096963 59.0553186,81.1049017 59.1347211,79.7178075 Z M44.0956847,79.071816 C43.5603907,79.4623811 43.2069192,79.8890876 43.0352702,80.3519356 C43.0759893,80.7657098 43.2669802,81.290171 43.608243,81.9253193 L44.7165633,81.1532819 L44.0956847,79.071816 Z M52.6752446,79.4883112 C52.8512124,80.8664876 53.0568546,81.6588676 53.2921711,81.8654511 L53.3366407,81.8973207 L53.3818058,81.9154607 C53.7736951,81.9093846 54.1933341,81.4189949 54.6407227,80.4442917 C53.8188425,79.9786044 53.1636832,79.6599443 52.6752446,79.4883112 Z M67.6643283,78.7038471 L67.1901579,80.823553 L68.349633,81.5163972 C68.6457588,80.8589908 68.7996999,80.3224843 68.8114564,79.9068776 C68.6079388,79.4571307 68.2255628,79.0561205 67.6643283,78.7038471 Z M33.3610158,78.8936084 L31.1472898,79.7203205 L33.4595844,81.0370498 L33.7125178,79.4999547 L33.3610158,78.8936084 Z M41.2755584,72.4853271 C40.3155488,74.4281219 39.6306492,76.0634118 39.2208596,77.3911968 C38.9533541,78.5135455 39.0044858,79.712211 39.3742546,80.9871932 L41.3393882,77.9611529 L41.2755584,72.4853271 Z M37.7748134,74.740562 C37.177357,75.30829 36.7132605,76.1390635 36.3825237,77.2328824 C36.0517869,78.3267012 35.9245211,79.4516926 36.0007262,80.6078564 L37.6238083,79.8504401 L37.7748134,74.740562 Z M56.8410115,79.7263067 C56.4285295,80.1100178 56.4836255,80.3855442 57.0062994,80.5528859 C57.2712551,80.3291337 57.3883783,80.1607029 57.357669,80.0475936 C57.2750593,79.9078181 57.1028401,79.8007224 56.8410115,79.7263067 Z M70.0181347,71.9366805 L70.3364347,77.40362 L72.5078672,80.2852082 C72.787797,78.987538 72.7551895,77.7882257 72.4100446,76.6872712 C71.9086316,75.391306 71.1113283,73.8077758 70.0181347,71.9366805 Z M54.9639597,79.3367885 C54.7079599,79.4292872 54.5436308,79.5481354 54.4709725,79.693333 C54.4482282,79.808309 54.5768152,79.9681594 54.8567336,80.1728841 C55.3664611,79.9694902 55.4022032,79.6907917 54.9639597,79.3367885 Z M78.360417,77.7772609 L78.0520679,78.4066497 L78.4116075,79.9223568 L80.626419,78.4475375 L78.360417,77.7772609 Z M42.4132673,70.733409 C41.4532577,72.6762038 41.5063999,75.7298116 42.5726941,79.8942324 L44.3946536,78.1338074 L42.4132673,70.733409 Z M73.6676693,73.9422221 L74.1747537,79.0291192 L75.8467167,79.67147 C75.8420863,78.5128067 75.636655,77.3994334 75.230423,76.3313501 C74.8241909,75.2632667 74.303273,74.4668907 73.6676693,73.9422221 Z M68.7609896,70.2683926 L67.3006556,77.7889784 L69.2409779,79.4180217 C70.0141793,75.1893643 69.8541832,72.1394879 68.7609896,70.2683926 Z M30.8331559,77.9312653 L28.4443234,77.9600266 L29.5052,78.6489679 L29.5985769,78.7142495 L29.7040585,78.7717246 C30.2245506,79.0217268 31.1404643,79.0167179 32.4517996,78.7566981 C31.7009995,78.2610868 31.1835125,77.9885204 30.8993387,77.9389989 L30.8331559,77.9312653 Z M35.6972967,75.8821617 C33.8085903,76.4670795 32.3944465,77.0079539 31.4548653,77.5047849 C32.06807,78.1042779 32.5020028,78.3860771 32.7566637,78.3501827 C33.9547435,78.3464201 34.7918149,78.1855648 35.2678781,77.8676166 C35.7716149,77.2648986 35.9147544,76.6030803 35.6972967,75.8821617 Z M83.2000092,76.5029822 L80.8149895,76.6409275 L80.7495074,76.6532589 C80.4694802,76.7224827 79.9722671,77.0304832 79.257868,77.5772605 C80.4894128,77.733179 81.3654997,77.6935347 81.8861287,77.4583277 L81.9999639,77.4005776 L82.1011794,77.3358844 L82.189775,77.2642482 L83.2000092,76.5029822 Z M45.309106,61.7452401 C44.3444577,63.2306682 43.3737281,64.7698531 42.3969172,66.3627947 L33.8600608,68.5753757 L37.806433,68.4209927 L36.8755803,69.8543802 L38.7532432,68.3565616 L41.3921264,68.0167614 C40.4649368,69.5571377 39.5323144,71.1455377 38.5942594,72.7819615 C32.3474884,75.2259546 28.7504694,76.744736 27.8032022,77.3383056 L27.7432277,77.3775144 C27.6042842,77.2371062 27.4666012,77.0957642 27.3301823,76.9535052 L26.4130913,75.5137348 L30.8842873,66.1900213 C33.0661532,65.6521906 35.0419742,65.0483683 36.8117505,64.3785544 C38.5815268,63.7087404 41.4139787,62.830969 45.309106,61.7452401 Z M75.8197593,74.9361207 C75.65312,75.6704522 75.8420769,76.3206735 76.3866302,76.8867844 C76.8837126,77.1707495 77.7299657,77.2728219 78.9253895,77.1930015 C79.1819339,77.2110442 79.5951523,76.8996618 80.1650448,76.2588542 C79.1930952,75.8287753 77.7446667,75.3878642 75.8197593,74.9361207 Z M30.5790259,73.9169113 C29.1620003,74.8081422 28.0801264,75.5647952 27.3334042,76.1868704 C27.633213,76.5828416 27.8742868,76.7393967 28.0566255,76.6565358 C28.8809396,76.4100469 29.488991,76.1004642 29.8807796,75.7277875 C30.3494021,75.102266 30.5821508,74.4986406 30.5790259,73.9169113 Z M65.2452221,61.5041218 C69.2065977,62.3154956 72.09338,62.993547 73.9055691,63.5382759 C75.5164038,64.0224795 77.2860056,64.443312 79.2143743,64.8007737 L79.9449548,64.9318513 L85.0556486,73.9209578 L84.2412249,75.421194 L84.0509868,75.6477148 L84.0509868,75.6477148 L83.8587631,75.8729829 L83.7961996,75.8380533 C82.8098346,75.3120076 79.1156329,74.0478413 72.7135944,72.0455543 C71.9261535,70.8703027 71.1436455,69.7217855 70.3660703,68.6000027 L69.5901393,67.4871314 L72.2462976,67.6420246 L74.2238691,69.0052154 L73.1952958,67.6402526 L77.1428241,67.5189746 L68.4724212,65.9072842 C67.3868718,64.3863619 66.3111388,62.9186411 65.2452221,61.5041218 Z M28.597707,73.2695591 C28.1316768,73.5436585 27.6666522,74.0431509 27.2026331,74.7680363 C27.0727674,74.9205705 27.1567243,75.1955882 27.4545039,75.5930895 C28.2579695,75.0463579 29.2831075,74.2143714 30.5299177,73.09713 C29.9718993,72.933778 29.327829,72.9912544 28.597707,73.2695591 Z M26.5227253,65.5902119 L30.2477614,65.7766565 L25.9356969,75.2037112 C25.4831045,74.7355334 25.0653673,74.2941491 24.6770408,73.8704307 C24.0083658,73.0009965 23.379174,72.1053678 22.7917107,71.1873356 C23.4052562,69.4120434 23.7766277,68.4253026 23.9065859,68.2251846 C24.6223082,67.1230689 25.4943547,66.2447446 26.5227253,65.5902119 Z M80.7884733,72.618625 C80.8259353,73.1991552 81.1002239,73.7850745 81.611339,74.3763828 C82.0281698,74.7208219 82.6563354,74.987235 83.4958358,75.1756221 C83.6835104,75.2455619 83.9130762,75.0725717 84.1845332,74.6566514 C83.3962362,74.0881804 82.2642162,73.4088382 80.7884733,72.618625 Z M32.9120154,73.179727 C32.3963721,73.3419787 31.8310234,73.7241118 31.2159692,74.3261264 C31.0551534,74.445554 31.0750996,74.7324632 31.2758078,75.1868539 C32.1814878,74.8348429 33.3672668,74.2547212 34.8331448,73.4464889 C34.3262583,73.1617256 33.6858819,73.072805 32.9120154,73.179727 Z M26.599407,72.9650041 C26.2373207,73.0709722 26.0271553,73.1646405 25.9689107,73.2460092 C25.6414949,73.6071624 25.4639095,73.8802441 25.4361546,74.0652543 C25.4929074,74.2959439 25.6676857,74.4258335 25.9604895,74.4549232 C26.28939,73.8096487 26.5023625,73.3130091 26.599407,72.9650041 Z M80.7802768,71.797415 C82.1019847,72.8249618 83.1826619,73.5834116 84.0223084,74.0727645 C84.2916343,73.6554595 84.3562024,73.3752551 84.2160128,73.2321515 C83.7025586,72.5414002 83.2038239,72.075563 82.7198088,71.8346399 C81.9720517,71.6079438 81.3255411,71.5955355 80.7802768,71.797415 Z M76.5119022,72.4461009 C78.0305888,73.1501099 79.2539466,73.6461026 80.1819754,73.9340792 C80.3504981,73.4667946 80.3503819,73.1791929 80.1816269,73.0712742 C79.5260766,72.5136301 78.9354487,72.1718646 78.4097435,72.0459775 C77.6303036,71.9932982 76.9976898,72.1266727 76.5119022,72.4461009 Z M31.6004528,68.9194272 L30.5901082,72.5655147 L31.2346128,73.6633577 L33.5816915,71.7910845 L31.6004528,68.9194272 Z M84.2540517,64.0292558 C85.3255752,64.6104586 86.2567662,65.4258124 87.0476248,66.4753172 C87.1912259,66.6658823 87.6305243,67.6243138 88.3664134,69.3524828 C87.8444198,70.3092581 87.2792366,71.2465952 86.6728391,72.1605559 C86.4044715,72.4978869 86.1202939,72.8462847 85.8182835,73.2097509 L85.510254,73.5783881 L80.5510953,64.4750917 L84.2540517,64.0292558 Z M27.3804388,70.481131 C25.9634132,71.3723619 24.8815393,72.1290149 24.1348171,72.75109 C24.4346259,73.1470613 24.6756997,73.3036164 24.8580384,73.2207555 C25.6823525,72.9742666 26.2904039,72.6646839 26.6821925,72.2920072 C27.150815,71.6664856 27.3835637,71.0628603 27.3804388,70.481131 Z M84.6919963,71.3914324 C84.81308,71.7318202 85.0601776,72.2123939 85.4332889,72.8331535 C85.7233503,72.7837097 85.8886422,72.6419446 85.9291647,72.4078581 C85.8885717,72.2252347 85.6923697,71.9652059 85.3405587,71.6277718 C85.27678,71.5506643 85.0605925,71.4718845 84.6919963,71.3914324 Z M30.4149228,68.8117829 C29.6326619,70.2920246 29.0735136,71.4881369 28.7374779,72.4001198 C29.1951531,72.5929333 29.4822725,72.6078758 29.5988362,72.4449473 C30.1898272,71.8192782 30.5619101,71.2471609 30.7150847,70.7285951 C30.8084495,69.9527263 30.7083956,69.3137889 30.4149228,68.8117829 Z M79.4209276,67.7045657 L77.6448319,70.707432 L80.1167963,72.4114205 L80.6831493,71.2712934 L79.4209276,67.7045657 Z M24.1687876,70.0039602 C23.8783694,70.0410468 23.7207454,70.1112981 23.6959154,70.214714 C23.5235861,70.6502321 23.4563843,71.0034064 23.49431,71.2742369 C23.5869276,71.5377007 23.7163409,71.7437809 23.88255,71.8924776 L23.986691,71.9748097 L24.099663,72.0433696 C24.1766569,71.1779089 24.1996985,70.4981058 24.1687876,70.0039602 Z M83.7396009,68.968092 C83.7770629,69.5486221 84.0513515,70.1345414 84.5624666,70.7258498 C84.9792974,71.0702888 85.607463,71.3367019 86.4469633,71.5250891 C86.634638,71.5950289 86.8642038,71.4220386 87.1356607,71.0061183 C86.3473638,70.4376473 85.2153438,69.7583052 83.7396009,68.968092 Z M25.8128322,69.1967177 C25.3468021,69.4708171 24.8817775,69.9703095 24.4177584,70.6951949 C24.2878927,70.8477291 24.3718496,71.1227468 24.6696291,71.5202481 C25.4730948,70.9735164 26.4982327,70.1415299 27.7450429,69.0242886 C27.1870245,68.8609366 26.5429543,68.9184129 25.8128322,69.1967177 Z M80.5960608,67.5144852 C80.3383211,68.0357399 80.2830809,68.6801003 80.4303402,69.4475664 C80.619315,69.954184 81.0304004,70.4989526 81.6635963,71.0818721 C81.7912413,71.2362726 82.076619,71.201338 82.5197293,70.9770685 C82.1208954,70.0907478 81.4796726,68.9365534 80.5960608,67.5144852 Z M19.695685,65.2496023 L25.6462462,65.5463426 C24.4946813,66.390578 23.5991911,67.3050023 22.9597757,68.2896157 C22.8493004,68.4597328 22.6405447,69.1428308 22.3335087,70.3389096 L22.3131758,70.4194048 C21.3059237,68.7590138 20.4321959,67.0299437 19.695685,65.2496023 Z M86.9101429,68.26805 C86.9133229,68.7012609 86.967625,69.2733881 87.0730494,69.9844316 L87.1213611,70.2976697 L87.2292754,70.2213962 L87.3274195,70.1320002 C87.4828512,69.9720716 87.5975739,69.7574659 87.6715875,69.4881832 C87.6905286,69.2153669 87.5988543,68.8677406 87.3965646,68.4453045 C87.3645812,68.3438726 87.2024406,68.2847878 86.9101429,68.26805 Z M83.2742607,67.5402318 C84.5959686,68.5677785 85.6766458,69.3262284 86.5162923,69.8155812 C86.7856182,69.3982762 86.8501863,69.1180719 86.7099967,68.9749682 C86.1965425,68.284217 85.6978078,67.8183798 85.2137927,67.5774567 C84.4660356,67.3507606 83.819525,67.3383523 83.2742607,67.5402318 Z M25.6874165,67.5822886 C25.1717733,67.7445403 24.6064246,68.1266734 23.9913704,68.728688 C23.8305545,68.8481156 23.8505007,69.1350248 24.051209,69.5894156 C24.9568889,69.2374045 26.1426679,68.6572828 27.608546,67.8490506 C27.1016595,67.5642872 26.461283,67.4753666 25.6874165,67.5822886 Z M20.918164,67.4644606 C21.4518551,68.1494931 21.8984578,68.6620333 22.2579721,69.0020814 C22.4452383,68.7768449 22.5127049,68.617967 22.4603719,68.5254478 C22.2895746,68.0895895 22.0979761,67.7856319 21.8855763,67.613575 C21.539209,67.4324701 21.2167382,67.3827653 20.918164,67.4644606 Z M26.9379152,66.3444044 C28.2427835,66.8898861 28.7785409,67.6906756 28.5451874,68.7467728 C29.0952088,67.4016194 29.4187417,66.5550402 29.5157861,66.2070353 C27.8249604,66.1136045 26.9656701,66.1593942 26.9379152,66.3444044 Z M91.040702,63.2132457 C90.5173936,64.7795722 89.8908907,66.3153541 89.1627484,67.8094936 L88.7902145,68.5530417 L88.7643161,68.4741609 C88.3745937,67.3024135 88.1186961,66.6355415 87.996623,66.4735452 C87.3607362,65.6296948 86.5218999,64.8570279 85.4801141,64.1555446 L85.1253356,63.9243533 L91.040702,63.2132457 Z M83.3284447,66.3583351 C84.8471314,67.062344 86.0704891,67.5583368 86.9985179,67.8463133 C87.1670406,67.3790288 87.1669244,67.0914271 86.9981695,66.9835083 C86.3426191,66.4258643 85.7519913,66.0840987 85.226286,65.9582117 C84.4468461,65.9055323 83.8142323,66.0389068 83.3284447,66.3583351 Z M22.0026446,65.974932 C22.0290069,66.9038005 22.178529,67.4896819 22.451211,67.732576 L22.5163239,67.7825399 L22.5858094,67.8203268 C22.8636503,67.8645967 23.2819485,67.4110637 23.8407039,66.459728 C23.9568944,66.4271481 24.0719786,66.2278367 24.1859564,65.8617937 C23.6691854,65.8292147 22.9414148,65.8669275 22.0026446,65.974932 Z M81.3113093,64.853362 C81.432393,65.1937497 81.8141921,66.0156981 82.4567068,67.3192073 C82.1502521,66.2819606 82.6288442,65.4457493 83.8924831,64.8105733 C83.8518901,64.6279499 82.9914988,64.6422128 81.3113093,64.853362 Z M89.0210476,65.7242189 C88.8211673,65.910673 88.6512384,66.2272554 88.5112611,66.6739661 C88.4655095,66.7699106 88.5438945,66.9236952 88.7464162,67.13532 C89.0813342,66.7710218 89.491096,66.2285767 89.9757016,65.5079845 C89.6721559,65.4473157 89.3539379,65.5193938 89.0210476,65.7242189 Z M86.604073,64.1371713 C86.743307,64.4943719 86.8720141,64.68517 86.9901943,64.7095654 C87.5723666,65.5589375 88.0022339,65.9842594 88.2797961,65.985531 L88.3369425,65.9793129 L88.4036228,65.936771 L88.4650918,65.8823867 C88.7201661,65.6210629 88.828455,65.0261787 88.7899585,64.0977338 C87.845941,64.0554777 87.1173125,64.0686235 86.604073,64.1371713 Z M17.1104837,48.9767883 L26.4790823,55.2795157 L19.4137284,63.6712403 L21.3145164,62.9386345 C23.7202446,59.9111135 25.7897042,57.6860012 27.5228951,56.2632975 C30.472669,53.8419517 33.0753188,53.5169993 35.5878012,52.4499099 L33.3962767,57.9474626 C33.7143172,57.7720257 33.97521,57.5088452 34.1478635,57.1892851 L36.9419838,52.0177164 C38.095951,50.8536232 40.2426847,50.0410327 43.3821851,49.5799451 C45.3247526,49.4745407 47.13722,49.9110348 48.8195873,50.8894276 L48.8153259,50.6774022 C48.8153259,51.9582773 49.177341,53.1545282 49.8045546,54.169257 L48.938135,54.4641764 C47.8454588,56.5469106 46.3566624,58.8965407 45.3885979,59.5325402 C41.2841931,62.2290538 36.0754565,63.9789253 29.7623883,64.7821547 L19.5368782,64.8596283 C19.3938978,64.5028794 19.2563925,64.1441392 19.1243915,63.7835461 L19.1857284,63.7592403 L19.0213245,63.2740832 C17.5247346,58.7346193 16.8466942,53.8950787 17.1104837,48.9767883 Z M23.7574117,63.0366454 L20.3447284,64.1972403 L20.378788,64.2622818 C20.570846,64.6100638 20.7534381,64.7632673 20.9265645,64.7218922 C21.7826291,64.6372364 22.4384708,64.4493575 22.8940895,64.1582558 C23.294449,63.7956236 23.5822231,63.4217535 23.7574117,63.0366454 Z M19.8279645,63.7650388 C19.5719647,63.8575376 19.4076357,63.9763857 19.3349774,64.1215833 C19.3122331,64.2365593 19.4408201,64.3964097 19.7207385,64.6011344 C20.230466,64.3977405 20.266208,64.119042 19.8279645,63.7650388 Z M25.0968701,62.5776594 L24.4442201,62.802943 C23.900722,63.6224411 23.6647683,64.1435803 23.7363591,64.3663609 L23.7569999,64.4104502 L23.8197822,64.458559 L23.8919103,64.4977204 C24.2247149,64.6480339 24.8207602,64.5463298 25.6800464,64.192608 C25.4742407,63.537366 25.2798486,62.9990498 25.0968701,62.5776594 Z M26.8350052,61.987809 L25.6067284,62.4062403 L25.6833112,62.642952 C25.9307456,63.4005966 26.1611082,63.9833491 26.374399,64.3912092 C27.2867633,63.1214139 27.6662202,62.3686092 27.5127695,62.132795 C27.3706739,62.0042144 27.1447524,61.9558858 26.8350052,61.987809 Z M67.5704936,48.5620288 L67.8907203,48.5634708 C70.7983576,48.8909415 72.8422511,49.558801 74.0224009,50.5670494 L74.1779766,50.7066477 L77.0483481,55.610373 C77.1959213,55.8624863 77.4012146,56.074886 77.6463408,56.2307065 L77.7980534,56.3172743 L75.4972206,51.0796469 C77.9540468,52.0278377 80.4720668,52.2563209 83.3968892,54.4981023 C85.2182947,55.8941505 87.4346768,58.1483308 90.0460355,61.260643 L91.508337,61.7109092 L91.3443356,62.2631774 L91.3443356,62.2631774 L91.1719187,62.8131438 L80.9659132,63.4491545 C74.6121928,63.0882591 69.2940796,61.7059933 65.0115737,59.302357 C63.9721791,58.7189774 62.2561444,56.3639112 61.0106188,54.3202829 C61.6978798,53.2748894 62.0973036,52.0228303 62.0973036,50.6774022 C62.0973036,50.5915237 62.0956763,50.5060255 62.0924508,50.420937 C63.7525975,49.2040157 65.5788055,48.5848402 67.5704936,48.5620288 Z M85.6376074,60.4859366 C85.4302471,60.9603998 85.2167733,61.6571789 84.997186,62.5762741 C85.8055644,62.8447835 86.3785143,62.9174738 86.7160356,62.7943448 L86.8022498,62.7559092 L86.8714705,62.7118118 L86.930744,62.6594407 L86.948259,62.614019 C87.0177252,62.3315196 86.5808414,61.6221588 85.6376074,60.4859366 Z M83.025242,60.649323 C82.8886147,60.8952669 83.3196603,61.6197683 84.3183786,62.8228271 C84.5257389,62.3483639 84.7392127,61.6515848 84.9588,60.7324896 C83.9412607,60.3945057 83.2967414,60.3667835 83.025242,60.649323 Z M18.4292174,57.9439009 C17.9954549,59.6359651 18.4196995,61.2550727 19.7019511,62.8012237 C20.3513355,61.4899742 20.9376308,60.637098 21.4608371,60.242595 C20.5766721,59.9890648 19.5661322,59.2228334 18.4292174,57.9439009 Z M86.6310212,60.7789798 C86.778534,61.3417837 87.1595136,61.8646795 87.7739601,62.347667 C88.2487752,62.6062773 88.9161251,62.7479493 89.7760096,62.7726829 C89.9735493,62.8055302 90.1658615,62.5918782 90.3529462,62.131727 C89.4708097,61.7240617 88.230168,61.273146 86.6310212,60.7789798 Z M90.8051868,61.7415259 C90.3927048,62.125237 90.4478008,62.4007634 90.9704747,62.5681051 C91.2354304,62.3443529 91.3525536,62.1759221 91.3218443,62.0628128 C91.2392345,61.9230373 91.0670154,61.8159416 90.8051868,61.7415259 Z M25.1578389,60.7363742 C24.6100791,60.856248 23.991355,61.1980888 23.3016665,61.7618967 C23.1630536,61.8467242 22.9447921,62.0677694 22.6468822,62.4250321 L26.5734549,60.9117728 C26.1710422,60.7686431 25.6991702,60.7101769 25.1578389,60.7363742 Z M93.173921,47.1193681 C93.5979995,51.8607679 93.1122159,56.556999 91.8276597,60.9902623 L91.6475523,61.5931478 L84.3682504,53.5137409 L93.173921,47.1193681 Z M27.4436367,60.123259 C27.3226566,60.1354316 27.2032001,60.3109303 27.0852674,60.6497551 L27.1267284,60.6982403 L27.8717284,60.4102403 L27.8626501,60.3991422 C27.7217636,60.2386497 27.5820925,60.1466887 27.4436367,60.123259 Z M85.8294503,58.740607 C85.0480066,58.7293136 84.422872,58.8959579 83.9540465,59.2405399 C86.091505,59.9065243 87.6312642,60.3586623 88.5733239,60.596954 C88.1337551,60.0778854 87.8268816,59.7689596 87.6527033,59.6701765 C86.9689293,59.148273 86.3611783,58.8384165 85.8294503,58.740607 Z M92.2137156,55.8229911 C91.1628836,57.0954603 90.2160499,57.8686218 89.3732144,58.1424756 C89.8907861,58.5063254 90.4849671,59.3107998 91.1557575,60.555899 C92.3373365,59.0205857 92.6899892,57.4429498 92.2137156,55.8229911 Z M27.1006966,58.2839863 C25.7783876,58.8777989 25.0540295,59.3223198 24.9276223,59.617549 L24.9115222,59.6680985 L24.9078364,59.7155485 C25.0330919,60.1016102 25.6472472,60.3690347 26.7503021,60.5178221 C26.9622338,59.5638349 27.079032,58.8192229 27.1006966,58.2839863 Z M21.3789914,55.5225551 C20.8422711,55.611972 20.2758338,56.5386086 19.6796793,58.3024651 C21.1559373,60.4954976 22.4351761,60.181651 23.5173958,57.3609252 C22.8188888,56.2424537 22.1060873,55.6296637 21.3789914,55.5225551 Z M83.6066512,58.2234272 C83.4475957,58.2560298 83.2902657,58.3839993 83.1346612,58.6073357 C83.3631762,59.1222691 83.6416291,59.1598775 83.9700197,58.7201607 C83.8447189,58.3967936 83.7235961,58.2312158 83.6066512,58.2234272 Z M83.8733839,56.4358236 C83.9127515,56.9520409 84.0509859,57.6673516 84.288087,58.5817556 C85.2748851,58.4138747 85.8479115,58.1601497 86.0071661,57.8205806 L86.0349588,57.7465018 L86.0291265,57.6981807 L86.0098524,57.6469779 C85.8712124,57.3662119 85.1590563,56.9624938 83.8733839,56.4358236 Z M18.3786784,53.8454343 L18.0179823,55.1033313 L17.9834514,55.2085883 L17.9590428,55.3223724 C17.8623052,55.9126112 18.1451505,56.8226185 18.8075787,58.0523943 C19.0708215,57.1597352 19.1837781,56.5652975 19.1464487,56.2690811 L19.1339853,56.20124 L18.3786784,53.8454343 Z M89.2888932,53.5812097 C88.5922803,53.7084994 87.9269147,54.323704 87.2927964,55.4268235 C88.4326561,58.1155697 89.6756258,58.3767281 91.0217054,56.2102987 C90.3865396,54.5263291 89.8089355,53.6499661 89.2888932,53.5812097 Z M22.9057829,53.8973517 L22.5996347,54.8984592 L22.5725766,54.964804 L22.556046,55.0373306 C22.484689,55.5162413 23.0467338,56.3670883 24.2421805,57.5898716 C24.4683586,56.8858971 24.5307609,56.4025273 24.4293876,56.1397621 L24.3976798,56.0735684 L22.9057829,53.8973517 Z M92.120726,51.863063 L91.4746694,54.163054 L91.4650101,54.2289832 C91.4392946,54.5162912 91.568638,55.0866906 91.8530405,55.9401815 C92.4014161,54.8264951 92.6491577,53.9852317 92.5962653,53.4163915 L92.5787226,53.2899565 L92.5505066,53.1731934 L92.5116171,53.0661022 L92.120726,51.863063 Z M87.7621607,52.0616704 L86.4004369,54.2123721 L86.3700232,54.2837583 C86.2849091,54.5421393 86.3624417,55.0047891 86.6026211,55.6717076 C87.6410316,54.5293657 88.1559746,53.7200865 88.14745,53.2438698 L88.1397172,53.1584823 L88.1211487,53.0850062 L88.0916368,53.018493 L87.7621607,52.0616704 Z M21.2916704,52.2517438 C20.912367,52.3862991 20.3835016,52.8958802 19.7050741,53.7804869 C19.5487005,53.9444572 19.4011641,54.4589777 19.2624649,55.3240484 C19.9657622,54.9688898 20.9525411,54.2925087 22.2228019,53.2949052 C22.0957324,52.6396432 21.7853552,52.2919227 21.2916704,52.2517438 Z M27.710587,43.4525967 C33.3222342,44.3810482 38.0047279,45.9279304 41.758068,48.0932433 L26.9271558,54.0504846 L17.2099975,48.6095507 L17.3180095,46.802734 C20.1505899,45.028446 23.6147825,43.9117336 27.710587,43.4525967 Z M18.157514,50.3106378 L17.4230466,53.5714113 L19.3446396,53.3056243 L19.9399852,52.6595419 L18.157514,50.3106378 Z M89.2599395,50.419419 C88.7858271,50.4744139 88.4989012,50.8204188 88.3991617,51.4574335 C89.6571186,52.3792539 90.6309318,53.0001368 91.3206012,53.320082 C91.1571087,52.4891513 90.9972216,51.9970694 90.8409399,51.8438362 C90.1569233,51.0117382 89.6299232,50.5369324 89.2599395,50.419419 Z M82.7732973,42.1317715 C86.5455034,42.4261617 89.7865361,43.3153777 92.4963957,44.7994197 L92.8988908,45.0264872 L93.0653786,46.7679561 L83.8941981,52.3414457 L69.403628,47.0743618 C72.9438773,44.8600271 77.4004337,43.212497 82.7732973,42.1317715 Z M92.2115611,48.441928 L90.5759347,50.7689392 L91.1716846,51.3733968 L93.0316877,51.5670736 L92.2115611,48.441928 Z M23.3110981,49.0028075 C22.9130069,49.1679357 22.4508285,49.5151951 21.9245628,50.0445857 L23.0276465,50.9087063 L24.9036435,49.6662364 C24.3533314,49.2542215 23.8224829,49.0330785 23.3110981,49.0028075 Z M22.5333918,46.4912126 C22.0603371,46.6785099 21.5321159,47.2166442 20.9487283,48.1056153 L20.8017321,48.3351672 L20.0630734,49.3856996 L21.0552692,50.1205621 L23.7534067,47.9570518 C23.6011173,47.0236067 23.1944456,46.5349936 22.5333918,46.4912126 Z M23.6244233,48.4068703 L25.9251411,49.6791867 L32.6637997,45.4855038 C30.4444027,45.1213669 27.4312772,46.0951558 23.6244233,48.4068703 Z M87.20259,47.3478458 C86.772525,47.3881014 86.3331583,47.5699831 85.8844899,47.893491 L85.691634,48.0408083 L87.5414805,49.1792539 L88.5740657,48.3085167 C88.0488849,47.8144937 87.5917263,47.4942701 87.20259,47.3478458 Z M20.0835078,45.8723363 C18.847739,46.279459 18.1077729,46.9087701 17.8636093,47.7602696 L19.5343601,48.8676535 L21.5166326,46.4617376 C21.1795998,46.0478338 20.7018915,45.8513667 20.0835078,45.8723363 Z M87.864836,44.89666 C87.2719899,44.9563585 86.9059712,45.3830327 86.7667801,46.1766828 L86.7404252,46.3523677 L89.4139673,48.3533857 L90.3442169,47.6111217 L89.5964523,46.620749 L89.4469356,46.4038701 C88.8543075,45.5644401 88.326941,45.0620367 87.864836,44.89666 Z M78.2955193,44.2181856 L78.072793,44.2575793 L84.7082084,48.0868155 L86.8802062,46.7825693 C83.262853,44.7474593 80.4012907,43.8926648 78.2955193,44.2181856 Z M90.2030926,44.2186098 C89.6730198,44.2186344 89.2559425,44.3809387 88.9518606,44.7055228 L88.8431266,44.8348487 L90.8355496,47.0934572 L92.4064848,45.9691614 C92.1418816,45.1547964 91.4074175,44.5712792 90.2030926,44.2186098 Z M32.4744968,20.3362773 L33.8667284,22.1092403 L33.0740143,21.0127478 C37.3489271,22.6125913 40.5280045,24.1027578 42.6112465,25.4832475 C45.7361094,27.5539819 46.7897989,29.9002146 48.5154572,31.9492337 L42.7157604,31.4708462 C42.9721735,31.7186698 43.2943322,31.8876865 43.6439684,31.9578196 L49.3111309,33.0945884 C50.737514,33.8425196 52.1187162,35.6216777 53.4547375,38.4320629 C54.155133,40.339372 54.2348386,42.2845532 53.6938543,44.2676066 C52.1790812,44.6839386 50.8815288,45.6229637 50.0061436,46.878675 C47.8138309,46.4184585 45.5068176,45.7355971 44.6806913,45.051516 C40.756931,41.8024119 37.436295,37.1746576 34.7187833,31.1682529 L31.5312812,21.0700682 C31.8420792,20.820617 32.1565273,20.5759964 32.4744968,20.3362773 Z M25.0877716,44.3341064 C23.8929742,44.407909 22.7194094,44.8201234 21.5670771,45.5707496 L25.1668916,46.6029798 L30.5796965,44.8878968 C28.3602995,44.52376 26.5296579,44.3391632 25.0877716,44.3341064 Z M76.8582004,19.1534369 C77.1820457,19.373194 77.5023993,19.5977546 77.8191572,19.8270185 L77.6118506,20.1225301 L77.9673569,20.3793992 L77.9673569,20.3793992 L78.3200016,20.6404379 L75.5986112,30.4974705 C73.1888089,36.3875352 70.1504425,40.9658882 66.4835122,44.2325298 C65.6002748,45.0193514 62.8502356,45.8681921 60.5235735,46.3817816 C59.8378516,45.57158 58.9612743,44.9282303 57.9634752,44.5207954 C57.7101714,42.1706057 57.6395402,39.4196945 58.0864036,38.3512169 C60.0139229,33.7424005 63.4112536,29.3037368 68.2783959,25.0352257 L76.8582004,19.1534369 Z M25.6801945,39.8074099 C25.8361284,40.0198927 26.8557185,40.9929179 28.7389648,42.7264856 C27.5438782,42.4977068 25.9109734,42.7101414 23.8402504,43.3637892 C22.598785,43.7556723 18.9730541,45.488682 17.3449632,45.9936679 C17.3655217,45.7574969 17.3869523,45.5366606 17.4095199,45.3282256 C17.6554993,43.8170459 17.993627,42.3013741 18.4268548,40.7905293 C19.1826409,38.1547899 20.1916639,35.6599672 21.4201136,33.3247115 L21.3475402,33.2269244 C24.1815689,36.9758415 24.2680201,37.8831153 25.6801945,39.8074099 Z M23.0536689,31.090515 L33.6634517,32.7034301 C34.8608074,34.7008067 36.0609424,36.4743311 37.2638569,38.0240032 C38.4667715,39.5736753 40.1992943,42.1124556 42.4614255,45.6403442 C40.694342,45.1336412 38.8720798,44.6371357 36.9946386,44.1508279 L32.2024354,36.3684652 L33.5562273,40.2280373 L31.851052,39.7390862 L33.9082014,41.1457592 L35.0481456,43.655235 C33.2379479,43.2021851 31.378456,42.7582454 29.4696699,42.3234157 C25.132593,36.8624498 22.5291262,33.7581778 21.6592693,33.0105996 L21.6093613,32.9694304 C21.7058355,32.7905534 21.8036051,32.6126316 21.9026545,32.4356734 L23.0536689,31.090515 Z M85.3299781,42.8971125 C84.0481905,42.9452697 82.4526443,43.152038 80.5433395,43.5174174 L80.0594766,43.6120667 L85.3321978,45.0909695 L88.7637423,43.9759931 C87.6279072,43.2888341 86.4833192,42.9292073 85.3299781,42.8971125 Z M20.3713837,42.5899566 C19.9014624,42.6444568 19.2936415,42.9844576 18.547921,43.6099589 C18.3701597,43.7213942 18.2554092,44.1215768 18.2036695,44.8105067 C19.0594344,44.6228066 20.2339258,44.2134368 21.7271435,43.5823974 C21.4666265,43.0263867 21.0147065,42.6955731 20.3713837,42.5899566 Z M86.8313833,30.0398354 L87.9847341,31.2983173 L88.1369783,31.5519389 L88.1369783,31.5519389 L88.2873915,31.8070302 L88.2339962,31.8548131 C87.4154812,32.6161758 85.017474,35.6975399 81.0399747,41.0989053 C79.6723868,41.4608208 78.3316827,41.826776 77.0178625,42.1967711 L75.7130036,42.5681128 L76.7242186,40.1070941 L78.6569752,38.681075 L77.0315067,39.2092217 L78.2007284,35.4392403 L73.8553354,43.1105881 C72.0638547,43.6418313 70.325873,44.1811137 68.6413903,44.7284353 C70.698257,41.2470386 72.2792116,38.7382842 73.384254,37.2021722 C74.3665139,35.8367392 75.3405449,34.3005576 76.306347,32.5936273 L76.668137,31.9455245 L86.8313833,30.0398354 Z M88.5485179,32.0472125 L88.482211,32.1444084 C89.7460397,34.3593888 90.8040607,36.735655 91.6230699,39.2563061 C92.0927224,40.7017479 92.470883,42.1549757 92.7599967,43.6068975 C92.7888633,43.8070284 92.8170678,44.0191216 92.8449637,44.2459807 C91.2593842,43.8116619 87.707295,42.2568387 86.4980101,41.9190745 C84.4809631,41.3556951 82.9008592,41.2040783 81.7576985,41.464224 C83.5116579,39.7281955 84.4600605,38.7550171 84.6029063,38.5446888 C85.8965519,36.6399063 85.9484581,35.7608323 88.5485179,32.0472125 Z M24.3812946,41.4769438 C23.1955624,41.479553 22.0408097,41.6929629 20.9170365,42.1171736 L22.1622257,43.4952196 L27.2773579,42.1031778 C26.5323812,41.6830793 25.5670268,41.4743346 24.3812946,41.4769438 Z M89.8123616,41.0579512 C89.1963847,41.1810526 88.7725449,41.5153707 88.5408424,42.0609057 C90.0008736,42.6213892 91.1462558,42.9782383 91.9769888,43.1314531 C91.9033413,42.4677861 91.7789847,42.0850558 91.6039189,41.983262 C90.8640442,41.403613 90.2668584,41.0951761 89.8123616,41.0579512 Z M22.4323541,39.6929016 C20.1686912,40.1822099 18.9186275,40.72139 18.682163,41.3104418 L18.657068,41.3875575 L18.6434694,41.4652388 L18.2647384,42.7860306 L21.512382,41.4710913 C21.848521,41.3074149 22.1551783,40.7146851 22.4323541,39.6929016 Z M86.2915545,40.1099717 L85.9116734,40.1145158 C84.8733563,40.1475758 84.0164988,40.3433605 83.3411012,40.7018698 L83.1439257,40.8143044 L88.118772,41.9909784 L89.2704644,40.6192353 C88.4172071,40.3292442 87.5503073,40.163027 86.669765,40.1205837 L86.2915545,40.1099717 Z M87.7271627,38.3275849 C88.0061954,39.2301154 88.2967867,39.7787435 88.5989363,39.9734693 L88.6747146,40.0147777 L91.8481914,41.1782308 L91.4377557,39.9150397 L91.4219728,39.8404616 L91.3951366,39.7668068 C91.1470206,39.2056595 89.9243626,38.7259188 87.7271627,38.3275849 Z M22.612374,36.6815404 C22.204215,37.4693448 22.0566786,37.9838653 22.1697648,38.225102 C22.5379994,39.4098342 22.9522432,40.1898475 23.4124964,40.5651418 C24.1636714,40.8819206 24.8637685,40.823949 25.5127877,40.3912268 C24.3579103,38.6982262 23.3911057,37.461664 22.612374,36.6815404 Z M20.3209034,37.0454655 L19.7181474,39.7314104 L21.3199555,39.5180668 L21.8145334,38.98723 L20.3209034,37.0454655 Z M87.449683,35.4251368 C86.7265996,36.2041132 85.8381477,37.4300827 84.7843272,39.1030451 C85.4243989,39.4996806 86.1007135,39.5327096 86.8132711,39.2021321 C87.2435997,38.8245814 87.6156241,38.0576649 87.9293443,36.9013826 C88.0299267,36.6646892 87.8700396,36.1726073 87.449683,35.4251368 Z M24.8573722,35.805053 C25.482123,36.5953091 26.418385,37.5939945 27.6661582,38.8011091 C27.7944397,38.2134844 27.6878252,37.5528106 27.3463146,36.8190879 C27.0284763,36.3576476 26.4773851,35.9133406 25.693041,35.4861669 C25.525638,35.3630183 25.2470817,35.4693137 24.8573722,35.805053 Z M89.6693324,35.7014645 L88.2978353,37.6257907 L88.7925455,38.1222496 L90.3427294,38.2757642 L89.6693324,35.7014645 Z M21.2448346,33.83902 L20.8841385,35.0969169 L20.8496077,35.2021739 L20.825199,35.3159581 C20.7284614,35.9061969 21.0113067,36.8162041 21.6737349,38.0459799 C21.9369777,37.1533209 22.0499343,36.5588832 22.0126049,36.2626668 L22.0001416,36.1948256 L21.2448346,33.83902 Z M84.4411654,34.3716835 C83.7004763,34.8099674 83.185041,35.257149 82.8948596,35.7132283 C82.5912895,36.4330525 82.5114386,37.0746231 82.655307,37.6379399 C83.8153966,36.4311964 84.6826533,35.4359684 85.2570771,34.6522559 C84.8701164,34.3407816 84.5981459,34.2472575 84.4411654,34.3716835 Z M31.1736639,34.235681 L27.2492228,34.3355581 L26.3562045,35.3046817 L28.9276412,37.063023 L31.1736639,34.235681 Z M88.6685982,32.6350019 L88.0225416,34.9349929 L88.0128824,35.0009222 C87.9871668,35.2882301 88.1165103,35.8586296 88.4009127,36.7121204 C88.9492883,35.598434 89.1970299,34.7571707 89.1441375,34.1883304 L89.1265949,34.0618955 L89.0983788,33.9451324 L89.0594894,33.8380411 L88.6685982,32.6350019 Z M48.574402,13.2071069 C51.0571018,15.3534528 53.1029864,18.2802521 54.7120558,21.9875047 C55.45199,27.5131954 55.3432894,32.3452727 54.3859538,36.4837365 L44.5208788,24.2906716 L46.84427,13.6237209 L48.574402,13.2071069 Z M62.816309,13.2644653 C63.0128426,13.303737 63.2088472,13.3445055 63.4043102,13.3867586 L64.9984477,14.0796673 L66.5314068,24.4860979 C64.9972954,26.1808006 63.674488,27.8139502 62.5629845,29.3855469 C61.451481,30.9571436 59.5620771,33.3086096 56.8947729,36.4399449 C56.8633285,34.6384978 56.8064338,32.7882563 56.7240888,30.8892204 L62.6649423,24.1671729 L59.4246358,26.542219 L59.3942931,24.8038839 L58.6628058,27.1351384 L56.6306268,28.9228035 C56.5363355,27.0963245 56.419308,25.2262548 56.2795444,23.3125945 C60.1629542,17.6901025 62.3331671,14.3616612 62.7901831,13.3272707 L62.816309,13.2644653 Z M82.9025299,33.3114684 L79.1191834,33.3437095 L81.380209,36.0006787 L83.7961547,34.2181548 L82.9025299,33.3114684 Z M22.6658878,32.204513 C22.3642828,32.6207192 22.2823182,32.9065639 22.4199938,33.0620472 C22.915308,33.8035999 23.4074183,34.3120607 23.8963246,34.5874295 C24.6594384,34.8625727 25.3290686,34.910852 25.905215,34.7322674 C24.5899669,33.5985456 23.5101912,32.7559608 22.6658878,32.204513 Z M23.2917838,32.1452512 C24.0786072,32.7755931 25.2158553,33.5392943 26.7035283,34.4363547 C26.6958089,33.8347456 26.4428393,33.2145797 25.9446193,32.5758569 C25.5309182,32.1972653 24.8939246,31.8876638 24.0336387,31.6470523 C23.8428089,31.5645257 23.595524,31.730592 23.2917838,32.1452512 Z M26.8496594,32.4519175 C26.7976236,32.9630938 26.8701528,33.2517942 27.0672471,33.3180187 C27.8677365,33.7142387 28.5485003,33.9099369 29.1095385,33.9051133 C29.9076347,33.7634685 30.5110442,33.4716848 30.9197673,33.0297623 C29.2133182,32.702023 27.8566156,32.509408 26.8496594,32.4519175 Z M87.2433879,31.1030097 C86.4492435,31.663283 85.4383633,32.5124568 84.2107471,33.6505309 C84.7718456,33.804112 85.4151428,33.7355237 86.1406386,33.444766 C86.602019,33.1627831 87.0584283,32.6555765 87.5098664,31.9231462 C87.6370967,31.7684665 87.5482705,31.4950877 87.2433879,31.1030097 Z M85.9067455,30.6094733 C85.086463,30.8700672 84.4836331,31.1899683 84.098256,31.5691767 C83.6404647,32.2023899 83.4182492,32.809638 83.4316093,33.390921 C84.8334798,32.4757582 85.9024423,31.7008849 86.6384967,31.0663012 C86.331611,30.6757874 86.0876939,30.5235114 85.9067455,30.6094733 Z M83.2222667,31.4791577 C82.2543864,31.5677047 80.9543125,31.7982238 79.3220447,32.1707151 C79.7309889,32.5841167 80.3222592,32.8461305 81.0958555,32.9567566 C81.6363961,32.943016 82.2853212,32.7316865 83.0426308,32.322768 C83.2301765,32.2523452 83.2900552,31.9711417 83.2222667,31.4791577 Z M26.2442277,26.2004587 C28.1915622,26.2726226 29.2835332,26.3425402 29.5216085,26.4108072 C30.8326989,26.7867563 31.9693395,27.3849477 32.9315303,28.2053815 L33.8798694,31.9486919 L23.2159822,30.5244614 C23.54124,29.9379441 23.8506679,29.3936205 24.1515633,28.8834594 C24.811717,27.9562014 25.5104265,27.0609728 26.2442277,26.2004587 Z M32.3096599,28.843858 C32.1655127,30.2999818 31.5340975,31.0718539 30.4154144,31.1594742 C31.9171946,31.2980936 32.855464,31.3629393 33.2302226,31.3540112 C32.8084953,29.6522353 32.501641,28.8155176 32.3096599,28.843858 Z M83.5896849,25.4220959 C84.3243892,26.2271461 85.0266533,27.0667044 85.6933964,27.937621 C85.9249771,28.3011917 86.1618745,28.6833142 86.4072136,29.0872036 L86.6554823,29.4984678 L76.4336023,31.223701 L77.2176209,27.577337 C78.1160129,26.7534128 79.1901112,26.1384077 80.4399158,25.7323215 C80.6668506,25.6585859 81.716087,25.5552559 83.5896849,25.4220959 Z M25.1011774,28.0020513 C24.7995725,28.4182575 24.7176078,28.7041023 24.8552835,28.8595855 C25.3505977,29.6011383 25.842708,30.1095991 26.3316143,30.3849679 C27.0947281,30.660111 27.7643583,30.7083903 28.3405047,30.5298058 C27.0252566,29.396084 25.9454809,28.5534992 25.1011774,28.0020513 Z M77.8386559,28.173579 C77.6527663,28.1525041 77.3861361,28.9706635 77.0387654,30.6280574 C77.4000293,30.6243899 78.3014985,30.530992 79.7431729,30.3478635 C78.662665,30.2999276 78.027826,29.5751661 77.8386559,28.173579 Z M24.1933941,29.6865705 C23.9818078,29.8123373 23.9061267,30.0245181 23.9663508,30.3231129 C24.7065514,30.4539995 25.264031,30.5149787 25.6387896,30.5060506 C25.4235048,30.1796228 25.2666419,29.9998568 25.1682009,29.9667526 C24.7103109,29.7516241 24.3853753,29.6582301 24.1933941,29.6865705 Z M26.4849292,28.1601011 C27.2717526,28.790443 28.4090007,29.5541442 29.8966736,30.4512046 C29.8889543,29.8495956 29.6359846,29.2294296 29.1377647,28.5907068 C28.7240635,28.2121152 28.08707,27.9025137 27.2267841,27.6619023 C27.0359543,27.5793756 26.7886694,27.7454419 26.4849292,28.1601011 Z M28.2122402,26.9655065 C28.836991,27.7557626 29.773253,28.7544479 31.0210261,29.9615625 C31.1493077,29.3739378 31.0426932,28.7132641 30.7011826,27.9795413 C30.3833443,27.518101 29.8322531,27.073794 29.047909,26.6466203 C28.880506,26.5234717 28.6019497,26.6297671 28.2122402,26.9655065 Z M84.7525342,27.1241664 C83.9583899,27.6844398 82.9475096,28.5336135 81.7198935,29.6716876 C82.2809919,29.8252687 82.9242891,29.7566804 83.649785,29.4659228 C84.1111653,29.1839399 84.5675746,28.6767333 85.0190127,27.944303 C85.146243,27.7896233 85.0574168,27.5162444 84.7525342,27.1241664 Z M82.6934614,26.8653619 C81.8731789,27.1259558 81.270349,27.4458569 80.8849719,27.8250654 C80.4271806,28.4582785 80.2049651,29.0655266 80.2183252,29.6468096 C81.6201957,28.7316468 82.6891582,27.9567735 83.4252126,27.3221898 C83.1183269,26.931676 82.8744098,26.7794 82.6934614,26.8653619 Z M84.755891,29.0238593 C84.6622201,29.0590595 84.5173486,29.2378206 84.3212765,29.5601425 C84.6825404,29.5564751 85.2173789,29.4792992 85.9257919,29.3286151 C85.9734766,29.0382593 85.8932488,28.8358185 85.6851085,28.7212927 C85.4992189,28.7002177 85.1894797,28.8010733 84.755891,29.0238593 Z M80.9043189,25.9445333 C80.1636298,26.3828172 79.6481945,26.8299988 79.3580131,27.2860781 C79.054443,28.0059023 78.9745921,28.6474728 79.1184605,29.2107897 C80.27855,28.0040461 81.1458067,27.0088181 81.7202305,26.2251056 C81.3332699,25.9136314 81.0612993,25.8201072 80.9043189,25.9445333 Z M35.8614547,26.3046003 C35.0532443,26.8568482 34.4580459,27.3209352 34.0758594,27.6968614 C35.6131202,28.2168638 36.4753761,28.3653525 36.662627,28.1423275 C36.8350503,27.7754289 36.5679929,27.1628531 35.8614547,26.3046003 Z M26.3714043,26.9225478 C26.1382161,27.0937009 25.9731493,27.2839638 25.8762038,27.4933363 L25.826211,27.621253 L25.7925674,27.753756 C26.6745614,27.5688798 27.3559617,27.3866089 27.8367683,27.2069432 C27.7116207,26.9306733 27.5939735,26.7958488 27.4838268,26.8024697 C26.9993473,26.7632807 26.6285398,26.8033067 26.3714043,26.9225478 Z M74.3299108,25.8376624 C73.6790624,26.6897278 73.4430156,27.2901074 73.6217704,27.638801 C73.8098334,27.8480561 74.6351976,27.6763691 76.0978629,27.12374 C75.7167591,26.7732069 75.1274418,26.3445143 74.3299108,25.8376624 Z M31.1929549,21.3447073 L32.7083917,27.3246026 C31.5205283,26.4394582 30.3409425,25.8289525 29.1696345,25.4930853 C28.967261,25.4350556 28.2260907,25.4344995 26.9461236,25.4914168 L26.8604671,25.4951455 C28.201252,23.997245 29.6507969,22.6107967 31.1929549,21.3447073 Z M48.8786448,19.5776338 L48.343515,22.098668 L54.2241258,27.2126159 C53.9286016,25.0280927 52.1467746,22.4830987 48.8786448,19.5776338 Z M38.36054,26.3302726 C38.0463657,26.7917551 38.1747576,27.0471237 38.7457157,27.0963781 C38.9089932,26.8727479 38.9799727,26.679042 38.9586542,26.5152605 C38.9124325,26.405359 38.7130611,26.3436964 38.36054,26.3302726 Z M33.2956336,25.0798199 L33.2604582,25.111947 L33.2318332,25.1886024 L33.2149278,25.2718092 C33.1670631,25.6465668 33.4492973,26.2058551 34.0616304,26.9496742 C34.8698409,26.3974264 35.4650393,25.9333393 35.8472258,25.5574131 C34.3908734,25.0647793 33.5403427,24.9055815 33.2956336,25.0798199 Z M82.4161792,26.0437576 C82.3098606,26.0409754 82.201207,26.1750462 82.0902183,26.4459699 C82.5008625,26.5840028 83.0594984,26.7189255 83.7661262,26.850738 L84.0780273,26.9070386 L84.0410428,26.7801715 L83.9884698,26.6582699 C83.8878579,26.4592387 83.7222943,26.2808975 83.491779,26.1232464 C83.2399927,26.0165169 82.8814594,25.9900206 82.4161792,26.0437576 Z M78.6555854,20.8947662 C79.9662037,21.8995101 81.2143446,22.9918818 82.3900213,24.1667981 L82.9717747,24.7611115 L82.8887597,24.7599179 C81.6539695,24.7469239 80.9401176,24.7717677 80.747204,24.8344491 C79.7423032,25.1609611 78.738634,25.7025407 77.7361962,26.4591879 L77.4020959,26.719369 L78.6555854,20.8947662 Z M35.0308465,22.5242487 C35.5720373,23.35143 36.51686,24.6826728 37.8653147,26.5179773 C38.0414759,25.9529277 37.9947244,25.2964657 37.7250605,24.5485913 C37.4548847,24.0695533 36.9555786,23.5876208 36.2271421,23.1027938 C36.0744447,22.9679795 35.6756795,22.7751312 35.0308465,22.5242487 Z M74.3177885,25.1155675 C74.6988923,25.4661007 75.2882097,25.8947932 76.0857406,26.4016452 C76.6028035,25.7247265 76.8580677,25.2066574 76.8515332,24.8474378 L76.8432602,24.7534073 L76.8241013,24.6736011 L76.7938811,24.6005066 L76.7566363,24.569158 C76.5121439,24.4115035 75.6991946,24.5936401 74.3177885,25.1155675 Z M71.3580008,23.4377057 C71.3108779,25.0275604 71.419092,25.8782789 71.6826429,25.9898613 C72.077227,26.0463109 72.576514,25.6204384 73.180504,24.7122436 C72.42887,24.1130171 71.8213689,23.6881711 71.3580008,23.4377057 Z M38.6615659,24.0113022 L38.6131577,24.0216957 C38.2861189,24.2497417 38.211174,24.9020128 38.3883231,25.9785089 C39.3463468,25.9037235 40.0801338,25.7997818 40.5896841,25.6666837 C39.6573237,24.6045125 39.0331615,24.0532456 38.7171975,24.012883 L38.6615659,24.0113022 Z M31.1746913,23.8474351 C30.2612393,24.1537424 29.7255135,24.4784844 29.5675138,24.8216613 L29.5377575,24.9011832 L29.5214117,24.9813596 C29.5620242,25.2697234 30.1392083,25.5469394 31.2529638,25.8130077 C31.3206339,25.9181854 31.5533713,25.9719698 31.9511761,25.9743608 C31.8262741,25.4530294 31.5674458,24.7440541 31.1746913,23.8474351 Z M78.759115,23.3108472 C78.411819,24.189676 78.1870304,24.8828876 78.0847491,25.3904821 C78.4678191,25.3751269 78.6901251,25.3155497 78.7516672,25.2117506 C79.7443011,24.9378243 80.2864019,24.6698481 80.3779696,24.4078218 L80.3906953,24.3517644 L80.3721802,24.2748667 L80.3407711,24.1990409 C80.1767288,23.8727846 79.64951,23.5767201 78.759115,23.3108472 Z M29.3670824,23.2233583 C28.8498739,23.9582644 28.4772885,24.5549338 28.2493261,25.0133665 C28.5297428,25.1307762 28.7078815,25.149626 28.7837424,25.0699161 C29.1641669,24.7693735 29.4074126,24.4880325 29.5134794,24.225893 C29.587764,23.828422 29.538965,23.4942438 29.3670824,23.2233583 Z M50.9542919,16.8365025 L51.0183488,20.5063211 L54.1870402,25.0879841 C53.891516,22.9034609 53.5389018,21.1347615 53.1291975,19.7818858 C52.7163597,18.6831991 51.9913912,17.7014046 50.9542919,16.8365025 Z M32.4960461,21.6096505 C32.1201626,21.9606881 31.9849368,22.2255769 32.0903688,22.4043168 C32.4347984,23.2261169 32.8207134,23.8185955 33.248114,24.1817526 C33.9448416,24.5968272 34.5932034,24.7715252 35.1931995,24.7058468 C34.1186504,23.3433411 33.2195993,22.3112757 32.4960461,21.6096505 Z M73.4740949,21.9277423 L73.39099,21.9357453 C73.0248192,21.9982923 72.5800047,22.4231169 72.0565467,23.210219 C72.8081807,23.8094455 73.4156818,24.2342915 73.8790499,24.4847569 C73.9235549,22.9832275 73.8295031,22.1409893 73.5968947,21.9580422 L73.5544078,21.9326013 L73.4740949,21.9277423 Z M65.577406,14.0695615 C66.2226335,14.2063525 66.823607,14.3403983 67.3899851,14.4762404 C68.4517238,14.8292853 69.4943822,15.227584 70.5144833,15.66872 C71.0059433,17.5144663 71.2540516,18.557887 71.2582879,18.8005813 C71.2816181,20.1371678 71.0458129,21.3739457 70.5508725,22.510915 L67.3033512,24.4726236 L65.577406,14.0695615 Z M80.4785734,22.6488378 C80.3223851,22.916094 80.2869346,23.2404414 80.3722221,23.6218799 C80.4834432,23.871574 80.7274544,24.135314 81.1042555,24.4130999 C81.1800775,24.4875954 81.3510033,24.4635483 81.6170331,24.3409586 C81.3816211,23.9056835 81.0021345,23.3416432 80.4785734,22.6488378 Z M77.409078,21.192944 C76.7364274,21.8942977 75.9061648,22.9205436 74.9182902,24.2716819 C75.4984572,24.3154369 76.1168996,24.1254517 76.7736176,23.7017265 C77.1727231,23.3369753 77.5239444,22.7521075 77.8272815,21.9471231 C77.9226519,21.7710397 77.7832507,21.5196467 77.409078,21.192944 Z M46.4703246,13.6357038 L43.2363338,24.2229601 L33.054544,19.8972927 C37.0180855,17.0062919 41.555789,14.8509246 46.4703246,13.6357038 Z M67.0487284,21.0002403 C67.351001,22.4466143 67.5597203,23.3446046 67.6758377,23.693293 C69.1549222,22.8102798 69.8535474,22.282866 69.7717133,22.1110518 C68.431514,22.3791742 67.5456256,22.0581349 67.114048,21.147934 L67.0487284,21.0002403 Z M75.7642611,20.0598894 C75.0904649,20.6182455 74.6442414,21.149759 74.4255908,21.6544297 C74.2355344,22.4264105 74.2576196,23.084166 74.4918464,23.627696 C75.464241,22.230055 76.1763436,21.0916088 76.6281542,20.2123573 C76.1900023,19.9606661 75.902038,19.9098435 75.7642611,20.0598894 Z M42.4093844,20.4713383 L42.3364307,20.4766316 C41.8655641,20.5470113 41.2270047,21.3176553 40.4207526,22.7885635 C41.1417573,22.798702 41.6124244,22.7200528 41.8327541,22.552616 L41.8913429,22.4997213 L43.5089673,20.477699 L42.4795511,20.4776839 L42.4093844,20.4713383 Z M62.4280252,13.1889583 L62.4407284,13.1712403 L62.2646458,13.4133983 C59.7390195,16.8449817 58.9186312,17.2198024 57.5562758,19.0397508 C57.4012844,19.2468012 56.7793498,20.4813027 55.6904719,22.7432552 C55.5620908,21.5575749 54.8929563,20.0879995 53.6830684,18.3345291 C52.9577015,17.2832668 50.2858335,14.3816999 49.3429749,13.0004842 C49.5690301,12.9524769 49.7811562,12.9095937 49.9821157,12.8712569 C51.4751804,12.668 52.999591,12.5502434 54.5468564,12.5232357 C57.2427238,12.4761792 59.8788661,12.7068684 62.4280252,13.1889583 Z M61.9848415,18.3828283 L61.0704824,21.2968964 L64.3748457,22.5916689 L63.1528723,18.9420618 L61.9848415,18.3828283 Z M71.354681,16.0440725 C73.1490198,16.8716073 74.8697841,17.833075 76.5039489,18.9158869 L71.3149951,22.0493365 C71.8059199,20.6823061 72.0409608,19.4017479 72.020118,18.2076619 C72.0165168,18.001353 71.8039959,17.3065222 71.3825552,16.1231696 L71.354681,16.0440725 Z M38.4391905,18.7165363 C36.8012577,20.7287204 37.4640988,21.8377522 40.427714,22.0436317 C41.2787156,21.0683833 41.6500783,20.2246699 41.5418021,19.5124916 C41.3034406,19.0350714 40.2692367,18.7697529 38.4391905,18.7165363 Z M64.8093487,18.0276979 C64.3136941,18.1254344 64.0630556,18.2761574 64.057433,18.4798671 C63.9149325,19.3436961 63.9265834,20.0378395 64.0923857,20.5622973 C64.4549918,21.2697265 64.9028233,21.7516521 65.4358805,22.0080742 C65.2535721,20.3147499 65.0447282,18.9879578 64.8093487,18.0276979 Z M32.2016758,20.6478569 C32.0806956,20.6600295 31.9612391,20.8355282 31.8433064,21.174353 C32.2001595,21.6175264 32.487513,21.5688285 32.7053669,21.0282593 C32.5357197,20.8027733 32.3678227,20.6759725 32.2016758,20.6478569 Z M70.3602945,17.7323407 C69.7967377,18.5443907 69.1267208,19.7081463 68.350244,21.2236073 C68.939705,21.1754224 69.5303403,20.8861417 70.1221499,20.3557652 C70.4647164,19.9256143 70.7241243,19.2817547 70.9003738,18.4241864 C70.9680608,18.2319903 70.7880344,18.001375 70.3602945,17.7323407 Z M54.0150979,15.2374184 L53.0771388,16.7994481 L55.8564866,21.1946999 C56.0373986,20.376057 55.9562129,19.4114381 55.6129293,18.3008432 C55.2696457,17.1902484 54.7370353,16.1691068 54.0150979,15.2374184 Z M46.8499664,18.4538013 L46.3544425,19.7353452 L48.0620712,21.1375447 C48.2913364,20.5036705 48.3467052,19.9427444 48.2281775,19.4547665 C47.9584668,19.1289776 47.4990631,18.7953225 46.8499664,18.4538013 Z M77.6593607,20.2543966 C77.5895642,20.2687032 77.5201,20.3013739 77.450968,20.3524086 L77.2137733,20.6952189 C77.4372293,21.1554151 77.7068813,21.1740522 78.0227292,20.7511302 C77.8974285,20.4277631 77.7763057,20.2621853 77.6593607,20.2543966 Z M72.682542,18.3830456 L72.6024476,18.3907045 C72.3429514,18.5114167 72.2481717,19.1318424 72.3181087,20.2519816 C72.2386535,20.3455511 72.2549747,20.5791023 72.3670722,20.9526352 C72.821417,20.6861511 73.4137211,20.2403624 74.1439845,19.6152693 C73.5933759,18.8469151 73.1340063,18.4378731 72.7658756,18.3881434 L72.682542,18.3830456 Z M38.4169392,17.4417572 C36.701083,17.5201682 35.3004612,18.3818473 34.2150737,20.0267946 C35.6348002,20.2596227 36.6053497,20.5646937 37.1267221,20.9420075 C37.1109888,20.0406486 37.5410612,18.8738985 38.4169392,17.4417572 Z M61.0834767,17.1214394 C60.5199199,17.9334894 59.8499031,19.097245 59.0734262,20.612706 C59.6628872,20.5645211 60.2535225,20.2752404 60.8453321,19.7448638 C61.1878986,19.314713 61.4473066,18.6708534 61.623556,17.8132851 C61.691243,17.621089 61.5112166,17.3904737 61.0834767,17.1214394 Z M68.7404251,16.4557776 C68.3738341,17.3738994 67.9825624,18.6586833 67.5666101,20.3101292 C68.1301292,20.1304677 68.6406033,19.7156237 69.0980324,19.0655971 C69.335135,18.5693427 69.4431773,17.8835778 69.4221594,17.0083024 C69.4449128,16.805792 69.217668,16.621617 68.7404251,16.4557776 Z M76.8498717,19.4758086 C76.5448124,19.9239024 76.657012,20.1776684 77.1864705,20.2371067 L77.3873455,19.9634958 C77.3896898,19.9651438 77.392034,19.966792 77.3943779,19.9684406 C77.442509,19.8560245 77.4600664,19.753606 77.4479859,19.6607964 C77.4017643,19.550895 77.2023929,19.4892324 76.8498717,19.4758086 Z M41.120093,17.4718563 C41.6562328,18.0292391 42.5759267,18.7602536 43.8791748,19.6648999 C44.4588414,19.3579984 44.6966133,18.9674337 44.5924906,18.4932057 C44.3569302,18.1762635 43.7257146,17.826628 42.6988439,17.4442991 C42.4997019,17.3447313 41.9734516,17.3539171 41.120093,17.4718563 Z M46.9344948,16.5202539 L46.5286481,17.6608202 L49.338718,19.5696032 C50.1727318,19.1593344 50.5153164,18.6381353 50.3664719,18.0060061 C50.0543661,17.6163106 49.396485,17.2754626 48.3928286,16.9834619 L48.1347109,16.9114794 L46.9344948,16.5202539 Z M58.0351911,15.2960522 C57.0269452,15.9807394 56.4125118,16.5925534 56.1918909,17.1314942 C56.1099198,17.9263342 56.3656726,18.565894 56.9591493,19.0501737 C58.2192433,17.4825211 59.1041742,16.2219615 59.613942,15.268495 C58.7557884,15.1117344 58.2295381,15.1209201 58.0351911,15.2960522 Z M67.6142181,15.1288496 C67.0592551,15.8056247 66.7225649,16.4125907 66.6041476,16.9497476 C66.5647613,17.7438443 66.7118409,18.385301 67.0453863,18.8741177 C67.7334513,17.31645 68.2154232,16.0629241 68.491302,15.1135401 C68.0132181,14.9501453 67.7208568,14.9552485 67.6142181,15.1288496 Z M64.0750449,14.6051402 C63.7084539,15.523262 63.3171822,16.8080459 62.9012299,18.4594918 C63.464749,18.2798303 63.9752231,17.8649862 64.4326522,17.2149596 C64.6697548,16.7187052 64.7777971,16.0329404 64.7567792,15.157665 C64.7795326,14.9551545 64.5522878,14.7709796 64.0750449,14.6051402 Z M72.2066975,17.2075995 C72.1768922,17.5040742 72.2103709,17.6764395 72.3071337,17.7246955 C72.6991066,17.9951152 73.0335918,18.1424656 73.3105892,18.1667465 C73.7057134,18.122452 74.0059392,17.9809361 74.2112667,17.7421988 C73.3715119,17.4680691 72.7033221,17.2898693 72.2066975,17.2075995 Z M42.2565064,16.2197323 L40.9699324,16.2421896 L40.8540495,16.2402515 L40.7323987,16.2517826 C40.1512371,16.3370223 39.3816615,16.8622535 38.4236719,17.8274763 C39.3387731,17.81836 39.9302358,17.753859 40.1980601,17.6339733 L40.2582737,17.602848 L42.2565064,16.2197323 Z M62.9623235,14.0508056 C62.4073605,14.7275807 62.0706703,15.3345467 61.952253,15.8717036 C61.9128668,16.6658002 62.0599464,17.3072569 62.3934918,17.7960737 C63.0815567,16.2384059 63.5635286,14.98488 63.8394074,14.035496 C63.3613235,13.8721013 63.0689622,13.8772045 62.9623235,14.0508056 Z M69.0578006,15.683947 L68.9235275,15.6903906 C69.3509031,16.4640636 69.7181695,17.0504743 70.0253269,17.4496227 C70.2491513,17.2531451 70.34212,17.1042369 70.3042331,17.0028981 C70.2018254,16.5375816 70.0576001,16.2015093 69.8715571,15.9946813 C69.6435808,15.8251767 69.4172151,15.7249967 69.1924602,15.6941413 L69.0578006,15.683947 Z M45.5169673,14.9993394 L42.2395014,15.2455168 L43.0417884,16.9703775 L43.8204756,17.3431999 L45.5169673,14.9993394 Z M47.8307884,13.9929155 L47.2696776,15.8762341 L50.1019295,17.0445877 C50.3942765,16.6100709 50.4417155,16.1060236 50.2442465,15.5324455 C49.506186,14.4908904 48.7016999,13.9777137 47.8307884,13.9929155 Z M50.7024184,13.4662133 C51.1249102,14.2144935 51.84747,15.1979716 52.8700979,16.4166476 C53.3180726,16.0131171 53.4992603,15.4947353 53.413661,14.8615021 C53.2273349,14.4366825 52.7328932,13.9644418 51.9303358,13.4447799 C51.7744487,13.3101091 51.3651429,13.3172536 50.7024184,13.4662133 Z M65.9824369,14.7151459 C66.0721197,15.4464217 66.1750198,15.9864038 66.2911371,16.3350922 C66.5362195,16.0397566 66.6601778,15.8412124 66.663012,15.7394593 C66.7336963,15.2486383 66.7281214,14.9173207 66.6462872,14.7455065 C66.4672003,14.5832404 66.2459169,14.5731202 65.9824369,14.7151459 Z M54.0515993,12.9101195 L53.9746409,12.9196382 L52.6237383,12.9432183 L54.7937851,15.6102407 C55.0443229,15.8783802 55.6898574,15.9959171 56.7303888,15.9628516 C55.6195825,13.9814445 54.7532297,12.96434 54.1313303,12.9115381 L54.0515993,12.9101195 Z M58.6130498,13.2250889 L55.9139975,13.4299635 L56.5750483,14.8701325 L57.2163965,15.1815395 L58.6130498,13.2250889 Z M61.8938872,13.1720598 L60.6073133,13.1945171 L60.4914304,13.192579 L60.3697796,13.2041101 C59.788618,13.2893498 59.0190424,13.814581 58.0610528,14.7798038 C58.976154,14.7706875 59.5676167,14.7061865 59.835441,14.5863008 L59.8956546,14.5551755 L61.8938872,13.1720598 Z" id="Combined-Shape" fill="#000000"></path>
    </g>
</svg>